<?xml version="1.0" encoding="UTF-8" standalone="no"?>
<!DOCTYPE svg PUBLIC "-//W3C//DTD SVG 1.1//EN"
 "http://www.w3.org/Graphics/SVG/1.1/DTD/svg11.dtd">
<!-- Generated by graphviz version 2.44.0 (20200408.0750)
 -->
<!-- Pages: 1 -->
<svg width="183pt" height="179pt"
 viewBox="0.00 0.00 183.34 178.78" xmlns="http://www.w3.org/2000/svg" xmlns:xlink="http://www.w3.org/1999/xlink">
<g id="graph0" class="graph" transform="scale(1 1) rotate(0) translate(4 174.78)">
<polygon fill="white" stroke="transparent" points="-4,4 -4,-174.78 179.34,-174.78 179.34,4 -4,4"/>
<!-- v0 -->
<g id="node1" class="node">
<title>v0</title>
<ellipse fill="#001c7f" stroke="white" stroke-width="0" cx="88.95" cy="-78.99" rx="10.71" ry="10.71"/>
<text text-anchor="middle" x="88.95" y="-76.49" font-family="Times,serif" font-size="10.00" fill="white">v0</text>
</g>
<!-- v1 -->
<g id="node2" class="node">
<title>v1</title>
<ellipse fill="#001c7f" stroke="white" stroke-width="0" cx="140.81" cy="-16.44" rx="10.71" ry="10.71"/>
<text text-anchor="middle" x="140.81" y="-13.94" font-family="Times,serif" font-size="10.00" fill="white">v1</text>
</g>
<!-- v0&#45;&gt;v1 -->
<g id="edge1" class="edge">
<title>v0&#45;&gt;v1</title>
<path fill="none" stroke="#001c7f" d="M95.73,-70.81C104.61,-60.1 120.26,-41.22 130.58,-28.77"/>
<polygon fill="#001c7f" stroke="#001c7f" points="132.02,-29.78 133.86,-24.82 129.32,-27.55 132.02,-29.78"/>
<text text-anchor="middle" x="109.65" y="-51.99" font-family="Lato" font-size="6.00" fill="#001c7f">e1</text>
</g>
<!-- v2 -->
<g id="node3" class="node">
<title>v2</title>
<ellipse fill="#001c7f" stroke="white" stroke-width="0" cx="45.19" cy="-10.61" rx="10.71" ry="10.71"/>
<text text-anchor="middle" x="45.19" y="-8.11" font-family="Times,serif" font-size="10.00" fill="white">v2</text>
</g>
<!-- v0&#45;&gt;v2 -->
<g id="edge2" class="edge">
<title>v0&#45;&gt;v2</title>
<path fill="none" stroke="#001c7f" d="M83.23,-70.05C75.73,-58.34 62.53,-37.7 53.82,-24.09"/>
<polygon fill="#001c7f" stroke="#001c7f" points="55.22,-23.03 51.05,-19.77 52.27,-24.92 55.22,-23.03"/>
<text text-anchor="middle" x="65.02" y="-49.27" font-family="Lato" font-size="6.00" fill="#001c7f">e2</text>
</g>
<!-- v3 -->
<g id="node4" class="node">
<title>v3</title>
<ellipse fill="#001c7f" stroke="white" stroke-width="0" cx="10.61" cy="-100.33" rx="10.71" ry="10.71"/>
<text text-anchor="middle" x="10.61" y="-97.83" font-family="Times,serif" font-size="10.00" fill="white">v3</text>
</g>
<!-- v0&#45;&gt;v3 -->
<g id="edge3" class="edge">
<title>v0&#45;&gt;v3</title>
<path fill="none" stroke="#001c7f" d="M78.7,-81.78C65.29,-85.43 41.65,-91.87 26.05,-96.12"/>
<polygon fill="#001c7f" stroke="#001c7f" points="25.46,-94.47 21.1,-97.47 26.38,-97.84 25.46,-94.47"/>
<text text-anchor="middle" x="48.88" y="-91.15" font-family="Lato" font-size="6.00" fill="#001c7f">e3</text>
</g>
<!-- v4 -->
<g id="node5" class="node">
<title>v4</title>
<ellipse fill="#001c7f" stroke="white" stroke-width="0" cx="164.74" cy="-108.44" rx="10.71" ry="10.71"/>
<text text-anchor="middle" x="164.74" y="-105.94" font-family="Times,serif" font-size="10.00" fill="white">v4</text>
</g>
<!-- v0&#45;&gt;v4 -->
<g id="edge4" class="edge">
<title>v0&#45;&gt;v4</title>
<path fill="none" stroke="#001c7f" d="M98.85,-82.84C111.83,-87.88 134.7,-96.77 149.79,-102.63"/>
<polygon fill="#001c7f" stroke="#001c7f" points="149.29,-104.32 154.58,-104.5 150.56,-101.05 149.29,-104.32"/>
<text text-anchor="middle" x="120.82" y="-94.94" font-family="Lato" font-size="6.00" fill="#001c7f">e4</text>
</g>
<!-- v5 -->
<g id="node6" class="node">
<title>v5</title>
<ellipse fill="#001c7f" stroke="white" stroke-width="0" cx="85.12" cy="-160.17" rx="10.71" ry="10.71"/>
<text text-anchor="middle" x="85.12" y="-157.67" font-family="Times,serif" font-size="10.00" fill="white">v5</text>
</g>
<!-- v0&#45;&gt;v5 -->
<g id="edge5" class="edge">
<title>v0&#45;&gt;v5</title>
<path fill="none" stroke="#001c7f" d="M88.45,-89.6C87.79,-103.58 86.62,-128.27 85.86,-144.43"/>
<polygon fill="#001c7f" stroke="#001c7f" points="84.1,-144.48 85.62,-149.55 87.6,-144.64 84.1,-144.48"/>
<text text-anchor="middle" x="83.65" y="-119.21" font-family="Lato" font-size="6.00" fill="#001c7f">e5</text>
</g>
</g>
</svg>
