{
  "Experiments P1, P2, P3 and P4 with \"DPE\" strategy": {
    "expSpces": {
      "expsData": [
        [
          "gA-P1",
          "gB-P1"
        ],
        [
          "gA-P2",
          "gB-P2"
        ],
        [
          "gA-P3",
          "gB-P3"
        ],
        [
          "gA-P4",
          "gB-P4"
        ]
      ],
      "forbiddenPatternDataFname": "data/GCM2020-forbidden-pattern-data",
      "graphDataFname": "data/GCM2020-graph-data",
      "maxRunTime": 0,
      "numReps": 5,
      "strategyName": "DPE"
    }
  }
}