<?xml version="1.0" encoding="UTF-8"?>
<!DOCTYPE svg PUBLIC "-//W3C//DTD SVG 1.1//EN" "http://www.w3.org/Graphics/SVG/1.1/DTD/svg11.dtd">
<svg version="1.1" xmlns="http://www.w3.org/2000/svg" xmlns:xlink="http://www.w3.org/1999/xlink" x="0" y="0" width="1525" height="704.999" viewBox="0, 0, 1525, 704.999">
  <defs>
    <clipPath id="Clip_1">
      <path d="M0,-0 L12,-0 L12,4 L0,4 z"/>
    </clipPath>
    <clipPath id="Clip_2">
      <path d="M-0,-0 L12,-0 L12,4 L-0,4 z"/>
    </clipPath>
    <clipPath id="Clip_3">
      <path d="M-0,0 L12,0 L12,4 L-0,4 z"/>
    </clipPath>
    <clipPath id="Clip_4">
      <path d="M0,0 L12,0 L12,4 L0,4 z"/>
    </clipPath>
    <clipPath id="Clip_5">
      <path d="M-0,0 L12,0 L12,4 L-0,4 z"/>
    </clipPath>
    <clipPath id="Clip_6">
      <path d="M0,0 L12,0 L12,4 L0,4 z"/>
    </clipPath>
    <clipPath id="Clip_7">
      <path d="M0,-0 L12,-0 L12,4 L0,4 z"/>
    </clipPath>
  </defs>
  <g id="Layer_1">
    <path d="M1072.5,350.5 L1144.5,350.5 C1150.023,350.5 1154.5,354.977 1154.5,360.5 L1154.5,489.499 C1154.5,495.022 1158.977,499.499 1164.5,499.499 L1177.5,499.499 L1170.5,494.499 M1170.5,504.499 L1177.5,499.499" fill-opacity="0" stroke="#CCCCCC" stroke-width="3" stroke-linecap="round" stroke-linejoin="bevel"/>
    <path d="M1072.5,350.5 L1144.5,350.5 C1150.023,350.5 1154.5,346.022 1154.5,340.5 L1154.5,240.5 C1154.5,234.977 1158.977,230.5 1164.5,230.5 L1177.5,230.5 L1170.5,225.5 M1170.5,235.5 L1177.5,230.5" fill-opacity="0" stroke="#CCCCCC" stroke-width="3" stroke-linecap="round" stroke-linejoin="bevel"/>
    <path d="M585.5,232.5 L598.5,232.5 C604.023,232.5 608.5,236.977 608.5,242.5 L608.5,340.5 C608.5,346.022 612.977,350.5 618.5,350.5 L802.5,350.5 L795.5,345.5 M795.5,355.5 L802.5,350.5" fill-opacity="0" stroke="#CCCCCC" stroke-width="3" stroke-linecap="round" stroke-linejoin="bevel"/>
    <path d="M362.5,245.5 L375.5,245.5 C381.023,245.5 385.5,249.977 385.5,255.5 L385.5,340.5 C385.5,346.022 389.977,350.5 395.5,350.5 L802.5,350.5 L795.5,345.5 M795.5,355.5 L802.5,350.5" fill-opacity="0" stroke="#CCCCCC" stroke-width="3" stroke-linecap="round" stroke-linejoin="bevel"/>
    <path d="M272.5,138.5 L375.5,138.5 C381.023,138.5 385.5,142.977 385.5,148.5 L385.5,340.5 C385.5,346.022 389.977,350.5 395.5,350.5 L802.5,350.5 L795.5,345.5 M795.5,355.5 L802.5,350.5" fill-opacity="0" stroke="#CCCCCC" stroke-width="3" stroke-linecap="round" stroke-linejoin="bevel"/>
    <path d="M287.5,494.499 L300.5,494.499 C306.023,494.499 310.5,490.022 310.5,484.499 L310.5,360.5 C310.5,354.977 314.977,350.5 320.5,350.5 L802.5,350.5 L795.5,345.5 M795.5,355.5 L802.5,350.5" fill-opacity="0" stroke="#CCCCCC" stroke-width="3" stroke-linecap="round" stroke-linejoin="bevel"/>
    <path d="M685.5,476.499 L698.5,476.499 C704.023,476.499 708.5,472.022 708.5,466.499 L708.5,360.5 C708.5,354.977 712.977,350.5 718.5,350.5 L802.5,350.5 L795.5,345.5 M795.5,355.5 L802.5,350.5" fill-opacity="0" stroke="#CCCCCC" stroke-width="3" stroke-linecap="round" stroke-linejoin="bevel"/>
    <path d="M205.5,82.5 L87.5,82.5 L84.477,82.805 L81.661,83.679 L79.113,85.062 L76.893,86.893 L75.062,89.113 L73.679,91.661 L72.805,94.477 L72.5,97.5 L72.5,108.5 L190.5,108.5 L193.523,108.195 L196.339,107.321 L198.887,105.938 L201.107,104.106 L202.938,101.886 L204.321,99.339 L205.195,96.523 L205.5,93.5 L205.5,82.5" fill="#EFC5C5"/>
    <path d="M72.5,97.5 C72.5,89.216 79.216,82.5 87.5,82.5 L1431.5,82.5 C1439.78,82.5 1446.5,89.216 1446.5,97.5 L1446.5,621.499 C1446.5,629.783 1439.78,636.499 1431.5,636.499 L87.5,636.499 C79.216,636.499 72.5,629.783 72.5,621.499 L72.5,97.5" fill-opacity="0" stroke="#EFC5C5" stroke-width="2" stroke-linecap="square" stroke-linejoin="bevel"/>
    <text transform="matrix(1, 0, 0, 1, 140.419, 102.797)">
      <tspan x="-55.92" y="-3.5" font-family="Helvetica" font-size="12" fill="#5C5C5C">ReSMT.datatypes</tspan>
    </text>
    <path d="M98.5,136.5 C98.5,132.082 102.082,128.5 106.5,128.5 L263.5,128.5 C267.918,128.5 271.5,132.082 271.5,136.5 L271.5,140.5 C271.5,144.918 267.918,148.5 263.5,148.5 L106.5,148.5 C102.082,148.5 98.5,144.918 98.5,140.5 L98.5,136.5" fill="#F4D07D"/>
    <text transform="matrix(1, 0, 0, 1, 175.341, 138.812)">
      <tspan x="-66.841" y="3.5" font-family="Helvetica" font-size="11" fill="#000000">genForbiddenTDGrelations</tspan>
    </text>
    <path d="M99,134.5 L99,142.5 L105.5,138.5 L99,134.5" fill="#3D3D3D"/>
    <g>
      <path d="M98.5,178.5 C98.5,167.454 107.454,158.5 118.5,158.5 L341.5,158.5 C352.546,158.5 361.5,167.454 361.5,178.5 L361.5,311.5 C361.5,322.546 352.546,331.5 341.5,331.5 L118.5,331.5 C107.454,331.5 98.5,322.546 98.5,311.5 L98.5,178.5" fill="#D6D6D6"/>
      <path d="M98.5,178.5 C98.5,167.454 107.454,158.5 118.5,158.5 L341.5,158.5 C352.546,158.5 361.5,167.454 361.5,178.5 L361.5,311.5 C361.5,322.546 352.546,331.5 341.5,331.5 L118.5,331.5 C107.454,331.5 98.5,322.546 98.5,311.5 L98.5,178.5" fill-opacity="0" stroke="#3C3C3C" stroke-width="1" stroke-opacity="0.125" stroke-linecap="square" stroke-linejoin="bevel"/>
    </g>
    <text transform="matrix(1, 0, 0, 1, 209.7, 175.765)">
      <tspan x="-96.2" y="4.5" font-family="Helvetica" font-size="14" fill="#000000">Z3TDGautomorphismTemplate</tspan>
    </text>
    <path d="M108.5,203.5 C108.5,196.872 113.873,191.5 120.5,191.5 L339.5,191.5 C346.127,191.5 351.5,196.872 351.5,203.5 L351.5,309.5 C351.5,316.127 346.127,321.5 339.5,321.5 L120.5,321.5 C113.873,321.5 108.5,316.127 108.5,309.5 L108.5,203.5" fill="#FFFFFF"/>
    <path d="M118.5,209.5 C118.5,205.081 122.082,201.5 126.5,201.5 L172.5,201.5 C176.918,201.5 180.5,205.081 180.5,209.5 L180.5,213.5 C180.5,217.918 176.918,221.5 172.5,221.5 L126.5,221.5 C122.082,221.5 118.5,217.918 118.5,213.5 L118.5,209.5" fill="#F4D07D"/>
    <text transform="matrix(1, 0, 0, 1, 143.266, 211.812)">
      <tspan x="-19.766" y="3.5" font-family="Helvetica" font-size="11" fill="#000000">__init__</tspan>
    </text>
    <path d="M118.5,239.5 C118.5,235.081 122.082,231.5 126.5,231.5 L146.5,231.5 C150.918,231.5 154.5,235.081 154.5,239.5 L154.5,243.5 C154.5,247.918 150.918,251.5 146.5,251.5 L126.5,251.5 C122.082,251.5 118.5,247.918 118.5,243.5 L118.5,239.5" fill="#81C1E3"/>
    <text transform="matrix(1, 0, 0, 1, 137.758, 241.812)">
      <tspan x="-14.258" y="3.5" font-family="Helvetica" font-size="11" fill="#000000">name</tspan>
    </text>
    <path d="M118.5,269.5 C118.5,265.081 122.082,261.5 126.5,261.5 L146.5,261.5 C150.918,261.5 154.5,265.081 154.5,269.5 L154.5,273.5 C154.5,277.918 150.918,281.5 146.5,281.5 L126.5,281.5 C122.082,281.5 118.5,277.918 118.5,273.5 L118.5,269.5" fill="#81C1E3"/>
    <text transform="matrix(1, 0, 0, 1, 138.977, 271.812)">
      <tspan x="-15.477" y="3.5" font-family="Helvetica" font-size="11" fill="#000000">domG</tspan>
    </text>
    <path d="M118.5,299.5 C118.5,295.081 122.082,291.5 126.5,291.5 L146.5,291.5 C150.918,291.5 154.5,295.081 154.5,299.5 L154.5,303.5 C154.5,307.918 150.918,311.5 146.5,311.5 L126.5,311.5 C122.082,311.5 118.5,307.918 118.5,303.5 L118.5,299.5" fill="#81C1E3"/>
    <text transform="matrix(1, 0, 0, 1, 133.781, 301.812)">
      <tspan x="-10.281" y="3.5" font-family="Helvetica" font-size="11" fill="#000000">solv</tspan>
    </text>
    <path d="M205.5,209.5 C205.5,205.081 209.082,201.5 213.5,201.5 L233.5,201.5 C237.918,201.5 241.5,205.081 241.5,209.5 L241.5,213.5 C241.5,217.918 237.918,221.5 233.5,221.5 L213.5,221.5 C209.082,221.5 205.5,217.918 205.5,213.5 L205.5,209.5" fill="#81C1E3"/>
    <text transform="matrix(1, 0, 0, 1, 221.087, 211.812)">
      <tspan x="-10.587" y="3.5" font-family="Helvetica" font-size="11" fill="#000000">asts</tspan>
    </text>
    <path d="M205.5,239.5 C205.5,235.081 209.082,231.5 213.5,231.5 L246.5,231.5 C250.918,231.5 254.5,235.081 254.5,239.5 L254.5,243.5 C254.5,247.918 250.918,251.5 246.5,251.5 L213.5,251.5 C209.082,251.5 205.5,247.918 205.5,243.5 L205.5,239.5" fill="#81C1E3"/>
    <text transform="matrix(1, 0, 0, 1, 229.34, 241.812)">
      <tspan x="-18.84" y="3.5" font-family="Helvetica" font-size="11" fill="#000000">vMorph</tspan>
    </text>
    <path d="M205.5,269.5 C205.5,265.081 209.082,261.5 213.5,261.5 L246.5,261.5 C250.918,261.5 254.5,265.081 254.5,269.5 L254.5,273.5 C254.5,277.918 250.918,281.5 246.5,281.5 L213.5,281.5 C209.082,281.5 205.5,277.918 205.5,273.5 L205.5,269.5" fill="#81C1E3"/>
    <text transform="matrix(1, 0, 0, 1, 229.648, 271.812)">
      <tspan x="-19.148" y="3.5" font-family="Helvetica" font-size="11" fill="#000000">eMorph</tspan>
    </text>
    <path d="M99,173.5 L99,181.5 L105.5,177.5 L99,173.5" fill="#3D3D3D"/>
    <path d="M328.5,176 C328.5,169.648 333.649,164.5 340,164.5 C346.351,164.5 351.5,169.648 351.5,176 C351.5,182.351 346.351,187.5 340,187.5 C333.649,187.5 328.5,182.351 328.5,176" fill="#FFFFFF"/>
    <image xlink:href="data:image/png;base64,iVBORw0KGgoAAAANSUhEUgAAABgAAAAICAYAAADjoT9jAAAAAXNSR0IArs4c6QAAAERlWElmTU0AKgAAAAgAAYdpAAQAAAABAAAAGgAAAAAAA6ABAAMAAAABAAEAAKACAAQAAAABAAAAGKADAAQAAAABAAAACAAAAACC1eIvAAAAzUlEQVQoFaXOPw4BQRiG8UnEnwsQCWdQqPVKrSM4gFIlkW2VTuACKi0HsJ0zCImQaNiE50mWbtmNL/klk5n3ezMh5JsKsSF2Kc/e/T01GvpY44Yk5dk738wUnjIbXSxxxgMxRinP3vlmxqw7uaZNao4Tnjhgggbe49k738yYdcfdzGnxMsMFLh0xRR1Z45sZs+64a4ddn2lyGmOPBIYX6KCEX2PGrDvu2mGXnXaHLe64YoUeqig67rhrh1122h0ibDBAnh8T+zp22GVn9ALbEDM5U/8yJQAAAABJRU5ErkJggg==" opacity="1" x="0" y="0" width="12" height="4" preserveAspectRatio="none" transform="matrix(1, 0, 0, 1, 334, 174)" clip-path="url(#Clip_1)"/>
    <g>
      <path d="M98.5,403.499 C98.5,392.454 107.454,383.499 118.5,383.499 L266.5,383.499 C277.546,383.499 286.5,392.454 286.5,403.499 L286.5,586.499 C286.5,597.545 277.546,606.499 266.5,606.499 L118.5,606.499 C107.454,606.499 98.5,597.545 98.5,586.499 L98.5,403.499" fill="#D6D6D6"/>
      <path d="M98.5,403.499 C98.5,392.454 107.454,383.499 118.5,383.499 L266.5,383.499 C277.546,383.499 286.5,392.454 286.5,403.499 L286.5,586.499 C286.5,597.545 277.546,606.499 266.5,606.499 L118.5,606.499 C107.454,606.499 98.5,597.545 98.5,586.499 L98.5,403.499" fill-opacity="0" stroke="#3C3C3C" stroke-width="1" stroke-opacity="0.125" stroke-linecap="square" stroke-linejoin="bevel"/>
    </g>
    <text transform="matrix(1, 0, 0, 1, 171.572, 400.765)">
      <tspan x="-58.072" y="4.5" font-family="Helvetica" font-size="14" fill="#000000">Z3TDGfrContainer</tspan>
    </text>
    <path d="M99,398.499 L99,406.499 L105.5,402.499 L99,398.499" fill="#3D3D3D"/>
    <path d="M108.5,428.499 C108.5,421.872 113.873,416.499 120.5,416.499 L264.5,416.499 C271.127,416.499 276.5,421.872 276.5,428.499 L276.5,584.499 C276.5,591.126 271.127,596.499 264.5,596.499 L120.5,596.499 C113.873,596.499 108.5,591.126 108.5,584.499 L108.5,428.499" fill="#FFFFFF"/>
    <path d="M118.5,434.499 C118.5,430.081 122.082,426.499 126.5,426.499 L172.5,426.499 C176.918,426.499 180.5,430.081 180.5,434.499 L180.5,438.499 C180.5,442.918 176.918,446.499 172.5,446.499 L126.5,446.499 C122.082,446.499 118.5,442.918 118.5,438.499 L118.5,434.499" fill="#F4D07D"/>
    <text transform="matrix(1, 0, 0, 1, 143.266, 436.812)">
      <tspan x="-19.766" y="3.5" font-family="Helvetica" font-size="11" fill="#000000">__init__</tspan>
    </text>
    <path d="M118.5,462.499 C118.5,458.081 122.082,454.499 126.5,454.499 L146.5,454.499 C150.918,454.499 154.5,458.081 154.5,462.499 L154.5,466.499 C154.5,470.918 150.918,474.499 146.5,474.499 L126.5,474.499 C122.082,474.499 118.5,470.918 118.5,466.499 L118.5,462.499" fill="#81C1E3"/>
    <text transform="matrix(1, 0, 0, 1, 133.781, 464.812)">
      <tspan x="-10.281" y="3.5" font-family="Helvetica" font-size="11" fill="#000000">solv</tspan>
    </text>
    <path d="M118.5,490.499 C118.5,486.081 122.082,482.499 126.5,482.499 C130.918,482.499 134.5,486.081 134.5,490.499 L134.5,494.499 C134.5,498.918 130.918,502.499 126.5,502.499 C122.082,502.499 118.5,498.918 118.5,494.499 L118.5,490.499" fill="#81C1E3"/>
    <text transform="matrix(1, 0, 0, 1, 127.972, 492.812)">
      <tspan x="-4.472" y="3.5" font-family="Helvetica" font-size="11" fill="#000000">N</tspan>
    </text>
    <path d="M118.5,518.499 C118.5,514.081 122.082,510.499 126.5,510.499 L159.5,510.499 C163.918,510.499 167.5,514.081 167.5,518.499 L167.5,522.499 C167.5,526.918 163.918,530.499 159.5,530.499 L126.5,530.499 C122.082,530.499 118.5,526.918 118.5,522.499 L118.5,518.499" fill="#81C1E3"/>
    <text transform="matrix(1, 0, 0, 1, 138.977, 520.812)">
      <tspan x="-15.477" y="3.5" font-family="Helvetica" font-size="11" fill="#000000">frData</tspan>
    </text>
    <path d="M118.5,546.499 C118.5,542.081 122.082,538.499 126.5,538.499 L199.5,538.499 C203.918,538.499 207.5,542.081 207.5,546.499 L207.5,550.499 C207.5,554.918 203.918,558.499 199.5,558.499 L126.5,558.499 C122.082,558.499 118.5,554.918 118.5,550.499 L118.5,546.499" fill="#F4D07D"/>
    <text transform="matrix(1, 0, 0, 1, 158.845, 548.812)">
      <tspan x="-35.345" y="3.5" font-family="Helvetica" font-size="11" fill="#000000">genTDFfrData</tspan>
    </text>
    <path d="M118.5,574.499 C118.5,570.081 122.082,566.499 126.5,566.499 L179.5,566.499 C183.918,566.499 187.5,570.081 187.5,574.499 L187.5,578.499 C187.5,582.918 183.918,586.499 179.5,586.499 L126.5,586.499 C122.082,586.499 118.5,582.918 118.5,578.499 L118.5,574.499" fill="#F4D07D"/>
    <text transform="matrix(1, 0, 0, 1, 150.595, 576.812)">
      <tspan x="-27.095" y="3.5" font-family="Helvetica" font-size="11" fill="#000000">genFRasts</tspan>
    </text>
    <path d="M253.5,400.999 C253.5,394.648 258.649,389.499 265,389.499 C271.351,389.499 276.5,394.648 276.5,400.999 C276.5,407.351 271.351,412.499 265,412.499 C258.649,412.499 253.5,407.351 253.5,400.999" fill="#FFFFFF"/>
    <image xlink:href="data:image/png;base64,iVBORw0KGgoAAAANSUhEUgAAABgAAAAICAYAAADjoT9jAAAAAXNSR0IArs4c6QAAAERlWElmTU0AKgAAAAgAAYdpAAQAAAABAAAAGgAAAAAAA6ABAAMAAAABAAEAAKACAAQAAAABAAAAGKADAAQAAAABAAAACAAAAACC1eIvAAAAzUlEQVQoFaXOPw4BQRiG8UnEnwsQCWdQqPVKrSM4gFIlkW2VTuACKi0HsJ0zCImQaNiE50mWbtmNL/klk5n3ezMh5JsKsSF2Kc/e/T01GvpY44Yk5dk738wUnjIbXSxxxgMxRinP3vlmxqw7uaZNao4Tnjhgggbe49k738yYdcfdzGnxMsMFLh0xRR1Z45sZs+64a4ddn2lyGmOPBIYX6KCEX2PGrDvu2mGXnXaHLe64YoUeqig67rhrh1122h0ibDBAnh8T+zp22GVn9ALbEDM5U/8yJQAAAABJRU5ErkJggg==" opacity="1" x="0" y="0" width="12" height="4" preserveAspectRatio="none" transform="matrix(1, 0, 0, 1, 259, 398.999)" clip-path="url(#Clip_2)"/>
    <g>
      <path d="M413.5,140.5 C413.5,129.454 422.454,120.5 433.5,120.5 L564.5,120.5 C575.546,120.5 584.5,129.454 584.5,140.5 L584.5,323.5 C584.5,334.546 575.546,343.5 564.5,343.5 L433.5,343.5 C422.454,343.5 413.5,334.546 413.5,323.5 L413.5,140.5" fill="#D6D6D6"/>
      <path d="M413.5,140.5 C413.5,129.454 422.454,120.5 433.5,120.5 L564.5,120.5 C575.546,120.5 584.5,129.454 584.5,140.5 L584.5,323.5 C584.5,334.546 575.546,343.5 564.5,343.5 L433.5,343.5 C422.454,343.5 413.5,334.546 413.5,323.5 L413.5,140.5" fill-opacity="0" stroke="#3C3C3C" stroke-width="1" stroke-opacity="0.125" stroke-linecap="square" stroke-linejoin="bevel"/>
    </g>
    <text transform="matrix(1, 0, 0, 1, 480.741, 137.765)">
      <tspan x="-52.241" y="4.5" font-family="Helvetica" font-size="14" fill="#000000">Z3TDGpredicate</tspan>
    </text>
    <path d="M414,135.5 L414,143.5 L420.5,139.5 L414,135.5" fill="#3D3D3D"/>
    <path d="M423.5,165.5 C423.5,158.872 428.872,153.5 435.5,153.5 L562.5,153.5 C569.127,153.5 574.5,158.872 574.5,165.5 L574.5,321.5 C574.5,328.127 569.127,333.5 562.5,333.5 L435.5,333.5 C428.872,333.5 423.5,328.127 423.5,321.5 L423.5,165.5" fill="#FFFFFF"/>
    <path d="M433.5,171.5 C433.5,167.081 437.082,163.5 441.5,163.5 L487.5,163.5 C491.918,163.5 495.5,167.081 495.5,171.5 L495.5,175.5 C495.5,179.918 491.918,183.5 487.5,183.5 L441.5,183.5 C437.082,183.5 433.5,179.918 433.5,175.5 L433.5,171.5" fill="#F4D07D"/>
    <text transform="matrix(1, 0, 0, 1, 458.266, 173.812)">
      <tspan x="-19.766" y="3.5" font-family="Helvetica" font-size="11" fill="#000000">__init__</tspan>
    </text>
    <path d="M433.5,199.5 C433.5,195.081 437.082,191.5 441.5,191.5 L461.5,191.5 C465.918,191.5 469.5,195.081 469.5,199.5 L469.5,203.5 C469.5,207.918 465.918,211.5 461.5,211.5 L441.5,211.5 C437.082,211.5 433.5,207.918 433.5,203.5 L433.5,199.5" fill="#81C1E3"/>
    <text transform="matrix(1, 0, 0, 1, 452.758, 201.812)">
      <tspan x="-14.258" y="3.5" font-family="Helvetica" font-size="11" fill="#000000">name</tspan>
    </text>
    <path d="M433.5,227.5 C433.5,223.081 437.082,219.5 441.5,219.5 L461.5,219.5 C465.918,219.5 469.5,223.081 469.5,227.5 L469.5,231.5 C469.5,235.918 465.918,239.5 461.5,239.5 L441.5,239.5 C437.082,239.5 433.5,235.918 433.5,231.5 L433.5,227.5" fill="#81C1E3"/>
    <text transform="matrix(1, 0, 0, 1, 453.977, 229.812)">
      <tspan x="-15.477" y="3.5" font-family="Helvetica" font-size="11" fill="#000000">domG</tspan>
    </text>
    <path d="M433.5,255.5 C433.5,251.081 437.082,247.5 441.5,247.5 L461.5,247.5 C465.918,247.5 469.5,251.081 469.5,255.5 L469.5,259.5 C469.5,263.918 465.918,267.5 461.5,267.5 L441.5,267.5 C437.082,267.5 433.5,263.918 433.5,259.5 L433.5,255.5" fill="#81C1E3"/>
    <text transform="matrix(1, 0, 0, 1, 449.087, 257.812)">
      <tspan x="-10.587" y="3.5" font-family="Helvetica" font-size="11" fill="#000000">asts</tspan>
    </text>
    <path d="M433.5,283.5 C433.5,279.081 437.082,275.5 441.5,275.5 L467.5,275.5 C471.918,275.5 475.5,279.081 475.5,283.5 L475.5,287.5 C475.5,291.918 471.918,295.5 467.5,295.5 L441.5,295.5 C437.082,295.5 433.5,291.918 433.5,287.5 L433.5,283.5" fill="#81C1E3"/>
    <text transform="matrix(1, 0, 0, 1, 453.368, 285.812)">
      <tspan x="-14.868" y="3.5" font-family="Helvetica" font-size="11" fill="#000000">vPred</tspan>
    </text>
    <path d="M433.5,311.5 C433.5,307.081 437.082,303.5 441.5,303.5 L467.5,303.5 C471.918,303.5 475.5,307.081 475.5,311.5 L475.5,315.5 C475.5,319.918 471.918,323.5 467.5,323.5 L441.5,323.5 C437.082,323.5 433.5,319.918 433.5,315.5 L433.5,311.5" fill="#81C1E3"/>
    <text transform="matrix(1, 0, 0, 1, 453.676, 313.812)">
      <tspan x="-15.177" y="3.5" font-family="Helvetica" font-size="11" fill="#000000">ePred</tspan>
    </text>
    <path d="M551.5,138 C551.5,131.649 556.649,126.5 563,126.5 C569.351,126.5 574.5,131.649 574.5,138 C574.5,144.351 569.351,149.5 563,149.5 C556.649,149.5 551.5,144.351 551.5,138" fill="#FFFFFF"/>
    <image xlink:href="data:image/png;base64,iVBORw0KGgoAAAANSUhEUgAAABgAAAAICAYAAADjoT9jAAAAAXNSR0IArs4c6QAAAERlWElmTU0AKgAAAAgAAYdpAAQAAAABAAAAGgAAAAAAA6ABAAMAAAABAAEAAKACAAQAAAABAAAAGKADAAQAAAABAAAACAAAAACC1eIvAAAAzUlEQVQoFaXOPw4BQRiG8UnEnwsQCWdQqPVKrSM4gFIlkW2VTuACKi0HsJ0zCImQaNiE50mWbtmNL/klk5n3ezMh5JsKsSF2Kc/e/T01GvpY44Yk5dk738wUnjIbXSxxxgMxRinP3vlmxqw7uaZNao4Tnjhgggbe49k738yYdcfdzGnxMsMFLh0xRR1Z45sZs+64a4ddn2lyGmOPBIYX6KCEX2PGrDvu2mGXnXaHLe64YoUeqig67rhrh1122h0ibDBAnh8T+zp22GVn9ALbEDM5U/8yJQAAAABJRU5ErkJggg==" opacity="1" x="0" y="0" width="12" height="4" preserveAspectRatio="none" transform="matrix(1, 0, 0, 1, 557, 136)" clip-path="url(#Clip_3)"/>
    <g>
      <path d="M413.5,410.499 C413.5,399.454 422.454,390.499 433.5,390.499 L664.5,390.499 C675.546,390.499 684.5,399.454 684.5,410.499 L684.5,543.499 C684.5,554.545 675.546,563.499 664.5,563.499 L433.5,563.499 C422.454,563.499 413.5,554.545 413.5,543.499 L413.5,410.499" fill="#D6D6D6"/>
      <path d="M413.5,410.499 C413.5,399.454 422.454,390.499 433.5,390.499 L664.5,390.499 C675.546,390.499 684.5,399.454 684.5,410.499 L684.5,543.499 C684.5,554.545 675.546,563.499 664.5,563.499 L433.5,563.499 C422.454,563.499 413.5,554.545 413.5,543.499 L413.5,410.499" fill-opacity="0" stroke="#3C3C3C" stroke-width="1" stroke-opacity="0.125" stroke-linecap="square" stroke-linejoin="bevel"/>
    </g>
    <text transform="matrix(1, 0, 0, 1, 525.099, 407.765)">
      <tspan x="-96.6" y="4.5" font-family="Helvetica" font-size="14" fill="#000000">Z3TDGspanPredicateTemplate</tspan>
    </text>
    <path d="M423.5,435.499 C423.5,428.872 428.872,423.499 435.5,423.499 L662.5,423.499 C669.127,423.499 674.5,428.872 674.5,435.499 L674.5,541.499 C674.5,548.126 669.127,553.499 662.5,553.499 L435.5,553.499 C428.872,553.499 423.5,548.126 423.5,541.499 L423.5,435.499" fill="#FFFFFF"/>
    <path d="M433.5,441.499 C433.5,437.081 437.082,433.499 441.5,433.499 L448.5,433.499 C452.918,433.499 456.5,437.081 456.5,441.499 L456.5,445.499 C456.5,449.918 452.918,453.499 448.5,453.499 L441.5,453.499 C437.082,453.499 433.5,449.918 433.5,445.499 L433.5,441.499" fill="#81C1E3"/>
    <text transform="matrix(1, 0, 0, 1, 445.727, 443.812)">
      <tspan x="-7.227" y="3.5" font-family="Helvetica" font-size="11" fill="#000000">gA</tspan>
    </text>
    <path d="M433.5,471.499 C433.5,467.081 437.082,463.499 441.5,463.499 L448.5,463.499 C452.918,463.499 456.5,467.081 456.5,471.499 L456.5,475.499 C456.5,479.918 452.918,483.499 448.5,483.499 L441.5,483.499 C437.082,483.499 433.5,479.918 433.5,475.499 L433.5,471.499" fill="#81C1E3"/>
    <text transform="matrix(1, 0, 0, 1, 445.727, 473.812)">
      <tspan x="-7.227" y="3.5" font-family="Helvetica" font-size="11" fill="#000000">gB</tspan>
    </text>
    <path d="M433.5,501.499 C433.5,497.081 437.082,493.499 441.5,493.499 L448.5,493.499 C452.918,493.499 456.5,497.081 456.5,501.499 L456.5,505.499 C456.5,509.918 452.918,513.499 448.5,513.499 L441.5,513.499 C437.082,513.499 433.5,509.918 433.5,505.499 L433.5,501.499" fill="#81C1E3"/>
    <text transform="matrix(1, 0, 0, 1, 445.418, 503.812)">
      <tspan x="-6.918" y="3.5" font-family="Helvetica" font-size="11" fill="#000000">sV</tspan>
    </text>
    <path d="M433.5,531.499 C433.5,527.081 437.082,523.499 441.5,523.499 L448.5,523.499 C452.918,523.499 456.5,527.081 456.5,531.499 L456.5,535.499 C456.5,539.918 452.918,543.499 448.5,543.499 L441.5,543.499 C437.082,543.499 433.5,539.918 433.5,535.499 L433.5,531.499" fill="#81C1E3"/>
    <text transform="matrix(1, 0, 0, 1, 445.418, 533.812)">
      <tspan x="-6.918" y="3.5" font-family="Helvetica" font-size="11" fill="#000000">sE</tspan>
    </text>
    <path d="M481.5,441.499 C481.5,437.081 485.082,433.499 489.5,433.499 L535.5,433.499 C539.918,433.499 543.5,437.081 543.5,441.499 L543.5,445.499 C543.5,449.918 539.918,453.499 535.5,453.499 L489.5,453.499 C485.082,453.499 481.5,449.918 481.5,445.499 L481.5,441.499" fill="#F4D07D"/>
    <text transform="matrix(1, 0, 0, 1, 506.266, 443.812)">
      <tspan x="-19.766" y="3.5" font-family="Helvetica" font-size="11" fill="#000000">__init__</tspan>
    </text>
    <path d="M481.5,471.499 C481.5,467.081 485.082,463.499 489.5,463.499 L509.5,463.499 C513.918,463.499 517.5,467.081 517.5,471.499 L517.5,475.499 C517.5,479.918 513.918,483.499 509.5,483.499 L489.5,483.499 C485.082,483.499 481.5,479.918 481.5,475.499 L481.5,471.499" fill="#81C1E3"/>
    <text transform="matrix(1, 0, 0, 1, 500.758, 473.812)">
      <tspan x="-14.258" y="3.5" font-family="Helvetica" font-size="11" fill="#000000">name</tspan>
    </text>
    <path d="M481.5,501.499 C481.5,497.081 485.082,493.499 489.5,493.499 L509.5,493.499 C513.918,493.499 517.5,497.081 517.5,501.499 L517.5,505.499 C517.5,509.918 513.918,513.499 509.5,513.499 L489.5,513.499 C485.082,513.499 481.5,509.918 481.5,505.499 L481.5,501.499" fill="#81C1E3"/>
    <text transform="matrix(1, 0, 0, 1, 496.781, 503.812)">
      <tspan x="-10.281" y="3.5" font-family="Helvetica" font-size="11" fill="#000000">solv</tspan>
    </text>
    <path d="M481.5,531.499 C481.5,527.081 485.082,523.499 489.5,523.499 L509.5,523.499 C513.918,523.499 517.5,527.081 517.5,531.499 L517.5,535.499 C517.5,539.918 513.918,543.499 509.5,543.499 L489.5,543.499 C485.082,543.499 481.5,539.918 481.5,535.499 L481.5,531.499" fill="#81C1E3"/>
    <text transform="matrix(1, 0, 0, 1, 497.087, 533.812)">
      <tspan x="-10.587" y="3.5" font-family="Helvetica" font-size="11" fill="#000000">asts</tspan>
    </text>
    <path d="M414,405.499 L414,413.499 L420.5,409.499 L414,405.499" fill="#3D3D3D"/>
    <path d="M651.5,407.999 C651.5,401.648 656.649,396.499 663,396.499 C669.351,396.499 674.5,401.648 674.5,407.999 C674.5,414.351 669.351,419.499 663,419.499 C656.649,419.499 651.5,414.351 651.5,407.999" fill="#FFFFFF"/>
    <image xlink:href="data:image/png;base64,iVBORw0KGgoAAAANSUhEUgAAABgAAAAICAYAAADjoT9jAAAAAXNSR0IArs4c6QAAAERlWElmTU0AKgAAAAgAAYdpAAQAAAABAAAAGgAAAAAAA6ABAAMAAAABAAEAAKACAAQAAAABAAAAGKADAAQAAAABAAAACAAAAACC1eIvAAAAzUlEQVQoFaXOPw4BQRiG8UnEnwsQCWdQqPVKrSM4gFIlkW2VTuACKi0HsJ0zCImQaNiE50mWbtmNL/klk5n3ezMh5JsKsSF2Kc/e/T01GvpY44Yk5dk738wUnjIbXSxxxgMxRinP3vlmxqw7uaZNao4Tnjhgggbe49k738yYdcfdzGnxMsMFLh0xRR1Z45sZs+64a4ddn2lyGmOPBIYX6KCEX2PGrDvu2mGXnXaHLe64YoUeqig67rhrh1122h0ibDBAnh8T+zp22GVn9ALbEDM5U/8yJQAAAABJRU5ErkJggg==" opacity="1" x="0" y="0" width="12" height="4" preserveAspectRatio="none" transform="matrix(1, 0, 0, 1, 657, 405.999)" clip-path="url(#Clip_4)"/>
    <g>
      <path d="M803.5,253.5 C803.5,242.454 812.454,233.5 823.5,233.5 L1051.5,233.5 C1062.546,233.5 1071.5,242.454 1071.5,253.5 L1071.5,446.499 C1071.5,457.545 1062.546,466.499 1051.5,466.499 L823.5,466.499 C812.454,466.499 803.5,457.545 803.5,446.499 L803.5,253.5" fill="#D6D6D6"/>
      <path d="M803.5,253.5 C803.5,242.454 812.454,233.5 823.5,233.5 L1051.5,233.5 C1062.546,233.5 1071.5,242.454 1071.5,253.5 L1071.5,446.499 C1071.5,457.545 1062.546,466.499 1051.5,466.499 L823.5,466.499 C812.454,466.499 803.5,457.545 803.5,446.499 L803.5,253.5" fill-opacity="0" stroke="#3C3C3C" stroke-width="2" stroke-linecap="square" stroke-linejoin="bevel"/>
    </g>
    <text transform="matrix(1, 0, 0, 1, 891.762, 250.765)">
      <tspan x="-73.262" y="4.5" font-family="Helvetica" font-size="14" fill="#000000">Z3TypedDirectedGraph</tspan>
    </text>
    <path d="M813.5,278.5 C813.5,271.872 818.872,266.5 825.5,266.5 L1049.5,266.5 C1056.127,266.5 1061.5,271.872 1061.5,278.5 L1061.5,444.499 C1061.5,451.126 1056.127,456.499 1049.5,456.499 L825.5,456.499 C818.872,456.499 813.5,451.126 813.5,444.499 L813.5,278.5" fill="#FFFFFF"/>
    <path d="M823.5,284.5 C823.5,280.081 827.081,276.5 831.5,276.5 L877.5,276.5 C881.918,276.5 885.5,280.081 885.5,284.5 L885.5,288.5 C885.5,292.918 881.918,296.5 877.5,296.5 L831.5,296.5 C827.081,296.5 823.5,292.918 823.5,288.5 L823.5,284.5" fill="#F4D07D"/>
    <text transform="matrix(1, 0, 0, 1, 848.266, 286.812)">
      <tspan x="-19.766" y="3.5" font-family="Helvetica" font-size="11" fill="#000000">__init__</tspan>
    </text>
    <path d="M823.5,314.5 C823.5,310.081 827.081,306.5 831.5,306.5 L851.5,306.5 C855.918,306.5 859.5,310.081 859.5,314.5 L859.5,318.5 C859.5,322.918 855.918,326.5 851.5,326.5 L831.5,326.5 C827.081,326.5 823.5,322.918 823.5,318.5 L823.5,314.5" fill="#81C1E3"/>
    <text transform="matrix(1, 0, 0, 1, 838.781, 316.812)">
      <tspan x="-10.281" y="3.5" font-family="Helvetica" font-size="11" fill="#000000">solv</tspan>
    </text>
    <path d="M823.5,344.5 C823.5,340.081 827.081,336.5 831.5,336.5 L851.5,336.5 C855.918,336.5 859.5,340.081 859.5,344.5 L859.5,348.5 C859.5,352.918 855.918,356.5 851.5,356.5 L831.5,356.5 C827.081,356.5 823.5,352.918 823.5,348.5 L823.5,344.5" fill="#81C1E3"/>
    <text transform="matrix(1, 0, 0, 1, 842.758, 346.812)">
      <tspan x="-14.258" y="3.5" font-family="Helvetica" font-size="11" fill="#000000">name</tspan>
    </text>
    <path d="M823.5,374.5 C823.5,370.081 827.081,366.5 831.5,366.5 L864.5,366.5 C868.918,366.5 872.5,370.081 872.5,374.5 L872.5,378.5 C872.5,382.918 868.918,386.499 864.5,386.499 L831.5,386.499 C827.081,386.499 823.5,382.918 823.5,378.5 L823.5,374.5" fill="#81C1E3"/>
    <text transform="matrix(1, 0, 0, 1, 842.75, 376.812)">
      <tspan x="-14.25" y="3.5" font-family="Helvetica" font-size="11" fill="#000000">stDict</tspan>
    </text>
    <path d="M823.5,404.499 C823.5,400.081 827.081,396.499 831.5,396.499 L877.5,396.499 C881.918,396.499 885.5,400.081 885.5,404.499 L885.5,408.499 C885.5,412.918 881.918,416.499 877.5,416.499 L831.5,416.499 C827.081,416.499 823.5,412.918 823.5,408.499 L823.5,404.499" fill="#81C1E3"/>
    <text transform="matrix(1, 0, 0, 1, 847.949, 406.812)">
      <tspan x="-19.449" y="3.5" font-family="Helvetica" font-size="11" fill="#000000">vertices</tspan>
    </text>
    <path d="M823.5,434.499 C823.5,430.081 827.081,426.499 831.5,426.499 L857.5,426.499 C861.918,426.499 865.5,430.081 865.5,434.499 L865.5,438.499 C865.5,442.918 861.918,446.499 857.5,446.499 L831.5,446.499 C827.081,446.499 823.5,442.918 823.5,438.499 L823.5,434.499" fill="#81C1E3"/>
    <text transform="matrix(1, 0, 0, 1, 843.985, 436.812)">
      <tspan x="-15.485" y="3.5" font-family="Helvetica" font-size="11" fill="#000000">edges</tspan>
    </text>
    <path d="M910.5,284.5 C910.5,280.081 914.082,276.5 918.5,276.5 L931.5,276.5 C935.918,276.5 939.5,280.081 939.5,284.5 L939.5,288.5 C939.5,292.918 935.918,296.5 931.5,296.5 L918.5,296.5 C914.082,296.5 910.5,292.918 910.5,288.5 L910.5,284.5" fill="#81C1E3"/>
    <text transform="matrix(1, 0, 0, 1, 923.331, 286.812)">
      <tspan x="-7.832" y="3.5" font-family="Helvetica" font-size="11" fill="#000000">src</tspan>
    </text>
    <path d="M910.5,314.5 C910.5,310.081 914.082,306.5 918.5,306.5 L938.5,306.5 C942.918,306.5 946.5,310.081 946.5,314.5 L946.5,318.5 C946.5,322.918 942.918,326.5 938.5,326.5 L918.5,326.5 C914.082,326.5 910.5,322.918 910.5,318.5 L910.5,314.5" fill="#81C1E3"/>
    <text transform="matrix(1, 0, 0, 1, 923.946, 316.812)">
      <tspan x="-8.447" y="3.5" font-family="Helvetica" font-size="11" fill="#000000">trgt</tspan>
    </text>
    <path d="M910.5,344.5 C910.5,340.081 914.082,336.5 918.5,336.5 L977.5,336.5 C981.918,336.5 985.5,340.081 985.5,344.5 L985.5,348.5 C985.5,352.918 981.918,356.5 977.5,356.5 L918.5,356.5 C914.082,356.5 910.5,352.918 910.5,348.5 L910.5,344.5" fill="#81C1E3"/>
    <text transform="matrix(1, 0, 0, 1, 941.365, 346.812)">
      <tspan x="-25.865" y="3.5" font-family="Helvetica" font-size="11" fill="#000000">stSortsDct</tspan>
    </text>
    <path d="M910.5,374.5 C910.5,370.081 914.082,366.5 918.5,366.5 L1017.5,366.5 C1021.918,366.5 1025.5,370.081 1025.5,374.5 L1025.5,378.5 C1025.5,382.918 1021.918,386.499 1017.5,386.499 L918.5,386.499 C914.082,386.499 910.5,382.918 910.5,378.5 L910.5,374.5" fill="#F4D07D"/>
    <text transform="matrix(1, 0, 0, 1, 958.797, 376.812)">
      <tspan x="-43.297" y="3.5" font-family="Helvetica" font-size="11" fill="#000000">patchNilElements</tspan>
    </text>
    <path d="M910.5,404.499 C910.5,400.081 914.081,396.499 918.5,396.499 L1043.5,396.499 C1047.918,396.499 1051.5,400.081 1051.5,404.499 L1051.5,408.499 C1051.5,412.918 1047.918,416.499 1043.5,416.499 L918.5,416.499 C914.081,416.499 910.5,412.918 910.5,408.499 L910.5,404.499" fill="#F4D07D"/>
    <text transform="matrix(1, 0, 0, 1, 968.878, 406.812)">
      <tspan x="-53.378" y="3.5" font-family="Helvetica" font-size="11" fill="#000000">isSortCompatibleWith</tspan>
    </text>
    <path d="M804,248.5 L804,256.5 L810.5,252.5 L804,248.5" fill="#3D3D3D"/>
    <path d="M1038.5,251 C1038.5,244.648 1043.648,239.5 1050,239.5 C1056.351,239.5 1061.5,244.648 1061.5,251 C1061.5,257.351 1056.351,262.5 1050,262.5 C1043.648,262.5 1038.5,257.351 1038.5,251" fill="#FFFFFF"/>
    <image xlink:href="data:image/png;base64,iVBORw0KGgoAAAANSUhEUgAAABgAAAAICAYAAADjoT9jAAAAAXNSR0IArs4c6QAAAERlWElmTU0AKgAAAAgAAYdpAAQAAAABAAAAGgAAAAAAA6ABAAMAAAABAAEAAKACAAQAAAABAAAAGKADAAQAAAABAAAACAAAAACC1eIvAAAAzUlEQVQoFaXOPw4BQRiG8UnEnwsQCWdQqPVKrSM4gFIlkW2VTuACKi0HsJ0zCImQaNiE50mWbtmNL/klk5n3ezMh5JsKsSF2Kc/e/T01GvpY44Yk5dk738wUnjIbXSxxxgMxRinP3vlmxqw7uaZNao4Tnjhgggbe49k738yYdcfdzGnxMsMFLh0xRR1Z45sZs+64a4ddn2lyGmOPBIYX6KCEX2PGrDvu2mGXnXaHLe64YoUeqig67rhrh1122h0ibDBAnh8T+zp22GVn9ALbEDM5U/8yJQAAAABJRU5ErkJggg==" opacity="1" x="0" y="0" width="12" height="4" preserveAspectRatio="none" transform="matrix(1, 0, 0, 1, 1044, 249)" clip-path="url(#Clip_5)"/>
    <g>
      <path d="M1178.5,148.5 C1178.5,137.454 1187.454,128.5 1198.5,128.5 L1374.5,128.5 C1385.546,128.5 1394.5,137.454 1394.5,148.5 L1394.5,311.5 C1394.5,322.546 1385.546,331.5 1374.5,331.5 L1198.5,331.5 C1187.454,331.5 1178.5,322.546 1178.5,311.5 L1178.5,148.5" fill="#D6D6D6"/>
      <path d="M1178.5,148.5 C1178.5,137.454 1187.454,128.5 1198.5,128.5 L1374.5,128.5 C1385.546,128.5 1394.5,137.454 1394.5,148.5 L1394.5,311.5 C1394.5,322.546 1385.546,331.5 1374.5,331.5 L1198.5,331.5 C1187.454,331.5 1178.5,322.546 1178.5,311.5 L1178.5,148.5" fill-opacity="0" stroke="#3C3C3C" stroke-width="1" stroke-opacity="0.125" stroke-linecap="square" stroke-linejoin="bevel"/>
    </g>
    <text transform="matrix(1, 0, 0, 1, 1248.089, 145.765)">
      <tspan x="-54.589" y="4.5" font-family="Helvetica" font-size="14" fill="#000000">Z3TypedFunction</tspan>
    </text>
    <path d="M1179,143.5 L1179,151.5 L1185.5,147.5 L1179,143.5" fill="#3D3D3D"/>
    <path d="M1188.5,173.5 C1188.5,166.872 1193.872,161.5 1200.5,161.5 L1372.5,161.5 C1379.127,161.5 1384.5,166.872 1384.5,173.5 L1384.5,309.5 C1384.5,316.127 1379.127,321.5 1372.5,321.5 L1200.5,321.5 C1193.872,321.5 1188.5,316.127 1188.5,309.5 L1188.5,173.5" fill="#FFFFFF"/>
    <path d="M1198.5,179.5 C1198.5,175.081 1202.081,171.5 1206.5,171.5 L1252.5,171.5 C1256.918,171.5 1260.5,175.081 1260.5,179.5 L1260.5,183.5 C1260.5,187.918 1256.918,191.5 1252.5,191.5 L1206.5,191.5 C1202.081,191.5 1198.5,187.918 1198.5,183.5 L1198.5,179.5" fill="#F4D07D"/>
    <text transform="matrix(1, 0, 0, 1, 1223.266, 181.812)">
      <tspan x="-19.766" y="3.5" font-family="Helvetica" font-size="11" fill="#000000">__init__</tspan>
    </text>
    <path d="M1198.5,209.5 C1198.5,205.081 1202.081,201.5 1206.5,201.5 L1226.5,201.5 C1230.918,201.5 1234.5,205.081 1234.5,209.5 L1234.5,213.5 C1234.5,217.918 1230.918,221.5 1226.5,221.5 L1206.5,221.5 C1202.081,221.5 1198.5,217.918 1198.5,213.5 L1198.5,209.5" fill="#81C1E3"/>
    <text transform="matrix(1, 0, 0, 1, 1213.781, 211.812)">
      <tspan x="-10.281" y="3.5" font-family="Helvetica" font-size="11" fill="#000000">solv</tspan>
    </text>
    <path d="M1198.5,239.5 C1198.5,235.081 1202.081,231.5 1206.5,231.5 L1239.5,231.5 C1243.918,231.5 1247.5,235.081 1247.5,239.5 L1247.5,243.5 C1247.5,247.918 1243.918,251.5 1239.5,251.5 L1206.5,251.5 C1202.081,251.5 1198.5,247.918 1198.5,243.5 L1198.5,239.5" fill="#81C1E3"/>
    <text transform="matrix(1, 0, 0, 1, 1222.954, 241.812)">
      <tspan x="-19.455" y="3.5" font-family="Helvetica" font-size="11" fill="#000000">domSet</tspan>
    </text>
    <path d="M1198.5,269.5 C1198.5,265.081 1202.081,261.5 1206.5,261.5 L1252.5,261.5 C1256.918,261.5 1260.5,265.081 1260.5,269.5 L1260.5,273.5 C1260.5,277.918 1256.918,281.5 1252.5,281.5 L1206.5,281.5 C1202.081,281.5 1198.5,277.918 1198.5,273.5 L1198.5,269.5" fill="#81C1E3"/>
    <text transform="matrix(1, 0, 0, 1, 1228.763, 271.812)">
      <tspan x="-25.263" y="3.5" font-family="Helvetica" font-size="11" fill="#000000">codomSet</tspan>
    </text>
    <path d="M1198.5,299.5 C1198.5,295.081 1202.081,291.5 1206.5,291.5 L1232.5,291.5 C1236.918,291.5 1240.5,295.081 1240.5,299.5 L1240.5,303.5 C1240.5,307.918 1236.918,311.5 1232.5,311.5 L1206.5,311.5 C1202.081,311.5 1198.5,307.918 1198.5,303.5 L1198.5,299.5" fill="#81C1E3"/>
    <text transform="matrix(1, 0, 0, 1, 1217.146, 301.812)">
      <tspan x="-13.646" y="3.5" font-family="Helvetica" font-size="11" fill="#000000">fData</tspan>
    </text>
    <path d="M1285.5,179.5 C1285.5,175.081 1289.081,171.5 1293.5,171.5 L1333.5,171.5 C1337.918,171.5 1341.5,175.081 1341.5,179.5 L1341.5,183.5 C1341.5,187.918 1337.918,191.5 1333.5,191.5 L1293.5,191.5 C1289.081,191.5 1285.5,187.918 1285.5,183.5 L1285.5,179.5" fill="#81C1E3"/>
    <text transform="matrix(1, 0, 0, 1, 1310.558, 181.812)">
      <tspan x="-20.059" y="3.5" font-family="Helvetica" font-size="11" fill="#000000">srtMaps</tspan>
    </text>
    <path d="M1285.5,209.5 C1285.5,205.081 1289.081,201.5 1293.5,201.5 L1333.5,201.5 C1337.918,201.5 1341.5,205.081 1341.5,209.5 L1341.5,213.5 C1341.5,217.918 1337.918,221.5 1333.5,221.5 L1293.5,221.5 C1289.081,221.5 1285.5,217.918 1285.5,213.5 L1285.5,209.5" fill="#81C1E3"/>
    <text transform="matrix(1, 0, 0, 1, 1312.699, 211.812)">
      <tspan x="-22.199" y="3.5" font-family="Helvetica" font-size="11" fill="#000000">sfNames</tspan>
    </text>
    <path d="M1285.5,239.5 C1285.5,235.081 1289.081,231.5 1293.5,231.5 L1366.5,231.5 C1370.918,231.5 1374.5,235.081 1374.5,239.5 L1374.5,243.5 C1374.5,247.918 1370.918,251.5 1366.5,251.5 L1293.5,251.5 C1289.081,251.5 1285.5,247.918 1285.5,243.5 L1285.5,239.5" fill="#81C1E3"/>
    <text transform="matrix(1, 0, 0, 1, 1323.712, 241.812)">
      <tspan x="-33.213" y="3.5" font-family="Helvetica" font-size="11" fill="#000000">subFunctions</tspan>
    </text>
    <path d="M1285.5,269.5 C1285.5,265.081 1289.081,261.5 1293.5,261.5 L1313.5,261.5 C1317.918,261.5 1321.5,265.081 1321.5,269.5 L1321.5,273.5 C1321.5,277.918 1317.918,281.5 1313.5,281.5 L1293.5,281.5 C1289.081,281.5 1285.5,277.918 1285.5,273.5 L1285.5,269.5" fill="#81C1E3"/>
    <text transform="matrix(1, 0, 0, 1, 1301.087, 271.812)">
      <tspan x="-10.587" y="3.5" font-family="Helvetica" font-size="11" fill="#000000">asts</tspan>
    </text>
    <path d="M1285.5,299.5 C1285.5,295.081 1289.081,291.5 1293.5,291.5 C1297.918,291.5 1301.5,295.081 1301.5,299.5 L1301.5,303.5 C1301.5,307.918 1297.918,311.5 1293.5,311.5 C1289.081,311.5 1285.5,307.918 1285.5,303.5 L1285.5,299.5" fill="#F4D07D"/>
    <text transform="matrix(1, 0, 0, 1, 1292.528, 301.812)">
      <tspan x="-2.028" y="3.5" font-family="Helvetica" font-size="11" fill="#000000">f</tspan>
    </text>
    <path d="M1361.5,146 C1361.5,139.649 1366.648,134.5 1373,134.5 C1379.351,134.5 1384.5,139.649 1384.5,146 C1384.5,152.351 1379.351,157.5 1373,157.5 C1366.648,157.5 1361.5,152.351 1361.5,146" fill="#FFFFFF"/>
    <image xlink:href="data:image/png;base64,iVBORw0KGgoAAAANSUhEUgAAABgAAAAICAYAAADjoT9jAAAAAXNSR0IArs4c6QAAAERlWElmTU0AKgAAAAgAAYdpAAQAAAABAAAAGgAAAAAAA6ABAAMAAAABAAEAAKACAAQAAAABAAAAGKADAAQAAAABAAAACAAAAACC1eIvAAAAzUlEQVQoFaXOPw4BQRiG8UnEnwsQCWdQqPVKrSM4gFIlkW2VTuACKi0HsJ0zCImQaNiE50mWbtmNL/klk5n3ezMh5JsKsSF2Kc/e/T01GvpY44Yk5dk738wUnjIbXSxxxgMxRinP3vlmxqw7uaZNao4Tnjhgggbe49k738yYdcfdzGnxMsMFLh0xRR1Z45sZs+64a4ddn2lyGmOPBIYX6KCEX2PGrDvu2mGXnXaHLe64YoUeqig67rhrh1122h0ibDBAnh8T+zp22GVn9ALbEDM5U/8yJQAAAABJRU5ErkJggg==" opacity="1" x="0" y="0" width="12" height="4" preserveAspectRatio="none" transform="matrix(1, 0, 0, 1, 1367, 144)" clip-path="url(#Clip_6)"/>
    <g>
      <path d="M1178.5,403.499 C1178.5,392.454 1187.454,383.499 1198.5,383.499 L1400.5,383.499 C1411.546,383.499 1420.5,392.454 1420.5,403.499 L1420.5,596.499 C1420.5,607.545 1411.546,616.499 1400.5,616.499 L1198.5,616.499 C1187.454,616.499 1178.5,607.545 1178.5,596.499 L1178.5,403.499" fill="#D6D6D6"/>
      <path d="M1178.5,403.499 C1178.5,392.454 1187.454,383.499 1198.5,383.499 L1400.5,383.499 C1411.546,383.499 1420.5,392.454 1420.5,403.499 L1420.5,596.499 C1420.5,607.545 1411.546,616.499 1400.5,616.499 L1198.5,616.499 C1187.454,616.499 1178.5,607.545 1178.5,596.499 L1178.5,403.499" fill-opacity="0" stroke="#3C3C3C" stroke-width="1" stroke-opacity="0.125" stroke-linecap="square" stroke-linejoin="bevel"/>
    </g>
    <text transform="matrix(1, 0, 0, 1, 1231.748, 400.765)">
      <tspan x="-38.248" y="4.5" font-family="Helvetica" font-size="14" fill="#000000">Z3TypedSet</tspan>
    </text>
    <path d="M1188.5,428.499 C1188.5,421.872 1193.872,416.499 1200.5,416.499 L1398.5,416.499 C1405.127,416.499 1410.5,421.872 1410.5,428.499 L1410.5,594.499 C1410.5,601.126 1405.127,606.499 1398.5,606.499 L1200.5,606.499 C1193.872,606.499 1188.5,601.126 1188.5,594.499 L1188.5,428.499" fill="#FFFFFF"/>
    <path d="M1198.5,434.499 C1198.5,430.081 1202.081,426.499 1206.5,426.499 L1252.5,426.499 C1256.918,426.499 1260.5,430.081 1260.5,434.499 L1260.5,438.499 C1260.5,442.918 1256.918,446.499 1252.5,446.499 L1206.5,446.499 C1202.081,446.499 1198.5,442.918 1198.5,438.499 L1198.5,434.499" fill="#F4D07D"/>
    <text transform="matrix(1, 0, 0, 1, 1223.266, 436.812)">
      <tspan x="-19.766" y="3.5" font-family="Helvetica" font-size="11" fill="#000000">__init__</tspan>
    </text>
    <path d="M1198.5,464.499 C1198.5,460.081 1202.081,456.499 1206.5,456.499 L1226.5,456.499 C1230.918,456.499 1234.5,460.081 1234.5,464.499 L1234.5,468.499 C1234.5,472.918 1230.918,476.499 1226.5,476.499 L1206.5,476.499 C1202.081,476.499 1198.5,472.918 1198.5,468.499 L1198.5,464.499" fill="#81C1E3"/>
    <text transform="matrix(1, 0, 0, 1, 1213.781, 466.812)">
      <tspan x="-10.281" y="3.5" font-family="Helvetica" font-size="11" fill="#000000">solv</tspan>
    </text>
    <path d="M1198.5,494.499 C1198.5,490.081 1202.081,486.499 1206.5,486.499 L1226.5,486.499 C1230.918,486.499 1234.5,490.081 1234.5,494.499 L1234.5,498.499 C1234.5,502.918 1230.918,506.499 1226.5,506.499 L1206.5,506.499 C1202.081,506.499 1198.5,502.918 1198.5,498.499 L1198.5,494.499" fill="#81C1E3"/>
    <text transform="matrix(1, 0, 0, 1, 1217.758, 496.812)">
      <tspan x="-14.258" y="3.5" font-family="Helvetica" font-size="11" fill="#000000">name</tspan>
    </text>
    <path d="M1198.5,524.499 C1198.5,520.081 1202.081,516.499 1206.5,516.499 L1219.5,516.499 C1223.918,516.499 1227.5,520.081 1227.5,524.499 L1227.5,528.499 C1227.5,532.918 1223.918,536.499 1219.5,536.499 L1206.5,536.499 C1202.081,536.499 1198.5,532.918 1198.5,528.499 L1198.5,524.499" fill="#81C1E3"/>
    <text transform="matrix(1, 0, 0, 1, 1211.031, 526.812)">
      <tspan x="-7.531" y="3.5" font-family="Helvetica" font-size="11" fill="#000000">els</tspan>
    </text>
    <path d="M1198.5,554.499 C1198.5,550.081 1202.081,546.499 1206.5,546.499 L1232.5,546.499 C1236.918,546.499 1240.5,550.081 1240.5,554.499 L1240.5,558.499 C1240.5,562.918 1236.918,566.499 1232.5,566.499 L1206.5,566.499 C1202.081,566.499 1198.5,562.918 1198.5,558.499 L1198.5,554.499" fill="#81C1E3"/>
    <text transform="matrix(1, 0, 0, 1, 1215.918, 556.812)">
      <tspan x="-12.418" y="3.5" font-family="Helvetica" font-size="11" fill="#000000">sorts</tspan>
    </text>
    <path d="M1198.5,584.499 C1198.5,580.081 1202.081,576.499 1206.5,576.499 L1246.5,576.499 C1250.918,576.499 1254.5,580.081 1254.5,584.499 L1254.5,588.499 C1254.5,592.918 1250.918,596.499 1246.5,596.499 L1206.5,596.499 C1202.081,596.499 1198.5,592.918 1198.5,588.499 L1198.5,584.499" fill="#81C1E3"/>
    <text transform="matrix(1, 0, 0, 1, 1222.954, 586.812)">
      <tspan x="-19.455" y="3.5" font-family="Helvetica" font-size="11" fill="#000000">subsets</tspan>
    </text>
    <path d="M1285.5,434.499 C1285.5,430.081 1289.081,426.499 1293.5,426.499 L1346.5,426.499 C1350.918,426.499 1354.5,430.081 1354.5,434.499 L1354.5,438.499 C1354.5,442.918 1350.918,446.499 1346.5,446.499 L1293.5,446.499 C1289.081,446.499 1285.5,442.918 1285.5,438.499 L1285.5,434.499" fill="#81C1E3"/>
    <text transform="matrix(1, 0, 0, 1, 1314.845, 436.812)">
      <tspan x="-24.345" y="3.5" font-family="Helvetica" font-size="11" fill="#000000">subsetEls</tspan>
    </text>
    <path d="M1285.5,464.499 C1285.5,460.081 1289.081,456.499 1293.5,456.499 L1392.5,456.499 C1396.918,456.499 1400.5,460.081 1400.5,464.499 L1400.5,468.499 C1400.5,472.918 1396.918,476.499 1392.5,476.499 L1293.5,476.499 C1289.081,476.499 1285.5,472.918 1285.5,468.499 L1285.5,464.499" fill="#81C1E3"/>
    <text transform="matrix(1, 0, 0, 1, 1338.075, 466.812)">
      <tspan x="-47.575" y="3.5" font-family="Helvetica" font-size="11" fill="#000000">subsetNamesToEls</tspan>
    </text>
    <path d="M1285.5,494.499 C1285.5,490.081 1289.081,486.499 1293.5,486.499 L1326.5,486.499 C1330.918,486.499 1334.5,490.081 1334.5,494.499 L1334.5,498.499 C1334.5,502.918 1330.918,506.499 1326.5,506.499 L1293.5,506.499 C1289.081,506.499 1285.5,502.918 1285.5,498.499 L1285.5,494.499" fill="#81C1E3"/>
    <text transform="matrix(1, 0, 0, 1, 1304.143, 496.812)">
      <tspan x="-13.643" y="3.5" font-family="Helvetica" font-size="11" fill="#000000">nilEls</tspan>
    </text>
    <path d="M1285.5,524.499 C1285.5,520.081 1289.081,516.499 1293.5,516.499 L1319.5,516.499 C1323.918,516.499 1327.5,520.081 1327.5,524.499 L1327.5,528.499 C1327.5,532.918 1323.918,536.499 1319.5,536.499 L1293.5,536.499 C1289.081,536.499 1285.5,532.918 1285.5,528.499 L1285.5,524.499" fill="#F4D07D"/>
    <text transform="matrix(1, 0, 0, 1, 1303.536, 526.812)">
      <tspan x="-13.036" y="3.5" font-family="Helvetica" font-size="11" fill="#000000">getEl</tspan>
    </text>
    <path d="M1285.5,554.499 C1285.5,550.081 1289.081,546.499 1293.5,546.499 L1392.5,546.499 C1396.918,546.499 1400.5,550.081 1400.5,554.499 L1400.5,558.499 C1400.5,562.918 1396.918,566.499 1392.5,566.499 L1293.5,566.499 C1289.081,566.499 1285.5,562.918 1285.5,558.499 L1285.5,554.499" fill="#F4D07D"/>
    <text transform="matrix(1, 0, 0, 1, 1333.797, 556.812)">
      <tspan x="-43.297" y="3.5" font-family="Helvetica" font-size="11" fill="#000000">patchNilElements</tspan>
    </text>
    <path d="M1179,398.499 L1179,406.499 L1185.5,402.499 L1179,398.499" fill="#3D3D3D"/>
    <path d="M1387.5,400.999 C1387.5,394.648 1392.648,389.499 1399,389.499 C1405.351,389.499 1410.5,394.648 1410.5,400.999 C1410.5,407.351 1405.351,412.499 1399,412.499 C1392.648,412.499 1387.5,407.351 1387.5,400.999" fill="#FFFFFF"/>
    <image xlink:href="data:image/png;base64,iVBORw0KGgoAAAANSUhEUgAAABgAAAAICAYAAADjoT9jAAAAAXNSR0IArs4c6QAAAERlWElmTU0AKgAAAAgAAYdpAAQAAAABAAAAGgAAAAAAA6ABAAMAAAABAAEAAKACAAQAAAABAAAAGKADAAQAAAABAAAACAAAAACC1eIvAAAAzUlEQVQoFaXOPw4BQRiG8UnEnwsQCWdQqPVKrSM4gFIlkW2VTuACKi0HsJ0zCImQaNiE50mWbtmNL/klk5n3ezMh5JsKsSF2Kc/e/T01GvpY44Yk5dk738wUnjIbXSxxxgMxRinP3vlmxqw7uaZNao4Tnjhgggbe49k738yYdcfdzGnxMsMFLh0xRR1Z45sZs+64a4ddn2lyGmOPBIYX6KCEX2PGrDvu2mGXnXaHLe64YoUeqig67rhrh1122h0ibDBAnh8T+zp22GVn9ALbEDM5U/8yJQAAAABJRU5ErkJggg==" opacity="1" x="0" y="0" width="12" height="4" preserveAspectRatio="none" transform="matrix(1, 0, 0, 1, 1393, 398.999)" clip-path="url(#Clip_7)"/>
    <path d="M272.5,143.5 L370.5,143.5 C376.023,143.5 380.5,147.977 380.5,153.5 L380.5,335.5 C380.5,341.022 384.977,345.5 390.5,345.5 L802.5,345.5 L797.5,341.5 M797.5,349.5 L802.5,345.5" fill-opacity="0" stroke="#878787" stroke-width="2" stroke-linecap="round" stroke-linejoin="bevel"/>
    <path d="M181.5,441.499 L291.5,441.499 C297.023,441.499 301.5,437.022 301.5,431.499 L301.5,355.5 C301.5,349.977 305.977,345.5 311.5,345.5 L802.5,345.5 L797.5,341.5 M797.5,349.5 L802.5,345.5" fill-opacity="0" stroke="#878787" stroke-width="2" stroke-linecap="round" stroke-linejoin="bevel"/>
    <path d="M496.5,178.5 L593.5,178.5 C599.023,178.5 603.5,182.977 603.5,188.5 L603.5,335.5 C603.5,341.022 607.977,345.5 613.5,345.5 L802.5,345.5 L797.5,341.5 M797.5,349.5 L802.5,345.5" fill-opacity="0" stroke="#878787" stroke-width="2" stroke-linecap="round" stroke-linejoin="bevel"/>
    <text transform="matrix(1, 0, 0, 1, 761.973, 690.39)">
      <tspan x="-49.91" y="2.5" font-family="Helvetica" font-size="8" fill="#000000">Exported from Sourcetrail ®</tspan>
    </text>
  </g>
</svg>
